Chapter 5: Standard Errors and Classification Accuracy
…
cut_score %>%
  select(grade:content, cut1:cut3, sem) %>%
  unnest(sem) %>%
  rename(cut1_cut = cut1,
         cut2_cut = cut2,
         cut3_cut = cut3) %>%
  pivot_longer(starts_with("cut"),
               names_to = c("cutt", "var"),
               names_sep = "_",
               values_to = "val") %>%
  pivot_wider(names_from = var, values_from = val) %>%
  select(-cutt)

## # A tibble: 102 x 5
## # Groups:   grade, tier, content [34]
##    grade  tier content   cut       se
##    <dbl> <dbl> <chr>   <dbl>    <dbl>
##  1    11     1 ela       286 17.99467
##  2    11     1 ela       300 18.92275
##  3    11     1 ela       323 21.23091
##  4    11     1 math      285 19.48722
##  5    11     1 math      300 20.87010
##  6    11     1 math      357 27.58068
##  7    11     1 science   267 32.11191
##  8    11     1 science   300 28.23959
##  9    11     1 science   374 22.02517
## 10    11     2 ela       484 18.76597
## # … with 92 more rows
…
